pipeline {
    agent any
    stages {
        stage('hello') {
            environment {
                kup = credentials('KUP')
            }
            steps {
                sh "echo MY NAME IS $kup"
                sh "echo MY NAME IS $kup_USR"
                sh "echo MY NAME IS $kup_PSW"
            }
        }
    }
}